^C:\PROGRAM FILES (X86)\MICROSOFT SDKS\MPI\MPIFIRST\MPIFIRST\MPIFIRST.CPP
C:\PROGRAM FILES (X86)\MICROSOFT SDKS\MPI\MPIFIRST\MPIFIRST\RELEASE\VC142.PDB
C:\PROGRAM FILES (X86)\MICROSOFT SDKS\MPI\MPIFIRST\MPIFIRST\RELEASE\MPIFIRST.OBJ
